<svg width="70" height="74" viewBox="0 0 70 74" fill="none" xmlns="http://www.w3.org/2000/svg">
<path d="M32.8457 65.6915C50.9859 65.6915 65.6915 50.9859 65.6915 32.8457C65.6915 14.7055 50.9859 0 32.8457 0C14.7055 0 0 14.7055 0 32.8457C0 50.9859 14.7055 65.6915 32.8457 65.6915Z" fill="#F8D309"/>
<mask id="mask0" style="mask-type:alpha" maskUnits="userSpaceOnUse" x="0" y="0" width="66" height="66">
<path d="M32.8457 65.6915C50.9859 65.6915 65.6915 50.9859 65.6915 32.8457C65.6915 14.7055 50.9859 0 32.8457 0C14.7055 0 0 14.7055 0 32.8457C0 50.9859 14.7055 65.6915 32.8457 65.6915Z" fill="#F8D309"/>
</mask>
<g mask="url(#mask0)">
<path d="M74.6914 76L15.5 52H36.5L44.5 46L48 38L53.5 30L90.1914 50C96.4813 78.0627 93.037 72.1696 74.6914 76Z" fill="url(#paint0_linear)"/>
</g>
<g clip-path="url(#clip0)">
<path d="M48.5055 51.9999C44.4943 51.9999 40.4044 51.9999 36.3932 51.9999C36.3932 50.5059 36.3932 48.9333 36.3932 47.4394C36.3932 45.3164 36.3932 43.1148 36.3932 40.9918C36.3932 40.6773 36.3932 40.3628 35.9999 40.3628C33.719 40.3628 31.4381 40.3628 29.2359 40.3628C28.9213 40.3628 28.8426 40.52 28.8426 40.7559C28.8426 40.9132 28.8426 41.0704 28.8426 41.3063C28.8426 44.8446 28.8426 48.4616 28.8426 51.9999C24.8314 51.9999 20.7415 51.9999 16.7303 51.9999C15.6291 51.6067 15.1572 50.9777 15.1572 49.7983C15.1572 45.1591 15.1572 40.52 15.1572 35.8809C15.1572 35.4091 15.3145 35.1733 15.6291 34.8587C21.1348 30.2983 26.719 25.7378 32.2246 21.1773C32.6179 20.8628 32.7752 20.8628 33.1685 21.1773C38.6741 25.7378 44.2584 30.2983 49.764 34.8587C50.1572 35.1733 50.2359 35.4878 50.2359 35.8809C50.2359 40.4414 50.2359 45.0805 50.2359 49.641C50.0786 50.9777 49.6067 51.6067 48.5055 51.9999Z" fill="white"/>
<path d="M56.9999 33.2076C56.4494 33.9152 55.8988 34.5442 55.3483 35.2519C54.4831 36.2741 54.0898 36.2741 53.0674 35.4878C47.0898 30.4555 41.0337 25.4233 35.0561 20.391C34.3483 19.8406 33.6404 19.2902 33.0112 18.6612C32.6966 18.3467 32.4606 18.3467 32.0674 18.6612C28.1348 21.9636 24.2022 25.266 20.191 28.5684C17.4381 30.8487 14.6853 33.1289 11.9325 35.4092C10.9887 36.1955 10.5168 36.1168 9.73028 35.2519C9.25837 34.7015 8.86511 34.1511 8.3932 33.6007C7.76399 32.8144 7.84264 32.3426 8.55051 31.7136C14.8426 26.5241 21.1348 21.3346 27.3483 16.1451C28.2134 15.4374 29.0786 14.7297 29.9438 13.9434C31.5955 12.6067 33.4831 12.6067 35.1348 13.9434C37.337 15.7519 39.5393 17.639 41.6629 19.4475C41.7415 19.5261 41.8988 19.762 42.0561 19.6834C42.2134 19.6047 42.1348 19.3688 42.1348 19.2116C42.1348 17.639 42.1348 16.0664 42.1348 14.4938C42.1348 13.3144 42.4494 12.9999 43.6292 12.9999C45.3595 12.9999 47.0112 12.9999 48.7415 12.9999C49.6853 12.9999 49.9999 13.3144 49.9999 14.258C49.9999 18.1108 49.9999 21.9636 49.9999 25.7378C49.9999 26.1309 50.1572 26.4455 50.4719 26.6813C52.3595 28.2539 54.2471 29.8265 56.1348 31.3991C56.4494 31.635 56.6853 31.8709 56.9213 32.1854C56.9999 32.5785 56.9999 32.893 56.9999 33.2076Z" fill="white"/>
</g>
<defs>
<linearGradient id="paint0_linear" x1="44.6826" y1="43.5152" x2="66.4553" y2="66.4975" gradientUnits="userSpaceOnUse">
<stop stop-color="#B47516"/>
<stop offset="1" stop-color="#B47516" stop-opacity="0"/>
</linearGradient>
<clipPath id="clip0">
<rect width="49" height="39" fill="white" transform="translate(8 13)"/>
</clipPath>
</defs>
</svg>
