<svg width="66" height="66" viewBox="0 0 66 66" fill="none" xmlns="http://www.w3.org/2000/svg">
<path d="M32.8457 65.6915C50.9859 65.6915 65.6915 50.9859 65.6915 32.8457C65.6915 14.7055 50.9859 0 32.8457 0C14.7055 0 0 14.7055 0 32.8457C0 50.9859 14.7055 65.6915 32.8457 65.6915Z" fill="#F8D309"/>
<path d="M65.6913 32.8459C65.703 41.3899 62.3834 49.6019 56.4375 55.7377C50.4917 61.8734 42.3881 65.4495 33.8479 65.7063C25.3077 65.9631 17.0039 62.8805 10.7001 57.1131C4.39626 51.3457 0.589185 43.348 0.0874618 34.8187C-0.414261 26.2895 2.4289 17.9006 8.01305 11.4339C13.5972 4.96724 21.4824 0.932286 29.9938 0.186077C38.5052 -0.560132 46.9722 2.04119 53.5964 7.43753C60.2206 12.8339 64.4801 20.6 65.4702 29.0865C65.6157 30.3344 65.6895 31.5896 65.6913 32.8459Z" fill="#F8D309"/>
<path d="M65.6915 32.8457C65.6909 40.2095 63.2168 47.3597 58.6661 53.1491C54.1155 58.9385 47.752 63.0315 40.5967 64.7715L10.5002 50.4946H32.6917L34.4342 51.105C35.6803 52.9444 37.965 49.961 40.1218 50.4946C42.2785 51.0283 44.5565 50.7448 46.5166 49.6987L46.6294 49.7252V49.6368C48.0183 48.8701 55.1842 51.8551 56.0002 50.4946C56.8163 49.1342 51.9778 48.5863 52.0002 47C52.0002 40 52.0002 32.5 52.5002 30C51.7231 28.617 40.5002 29.5 38.5002 29.5L39.0002 24.5L33.0002 25V20V14L37.5002 16L65.477 29.0863C65.62 30.3344 65.6916 31.5895 65.6915 32.8457Z" fill="url(#paint0_linear)"/>
<g clip-path="url(#clip0)">
<path d="M26.7634 36.3014C26.7634 32.6521 26.7634 28.9014 26.7634 25.2521C26.7634 24.5425 26.7634 24.5425 27.4619 24.5425C31.1539 24.5425 34.8459 24.5425 38.5378 24.5425C39.2363 24.5425 39.2363 24.5425 39.2363 25.2521C39.2363 32.6521 39.2363 40.0521 39.2363 47.4521C39.2363 47.9589 39.0367 48.0603 38.6376 48.0603C34.8459 48.0603 31.1539 48.0603 27.3621 48.0603C26.7634 48.0603 26.7634 48.0603 26.7634 47.3507C26.7634 43.6 26.7634 39.9507 26.7634 36.3014ZM33.6485 35.8959C33.6485 35.8959 33.5487 35.8959 33.6485 35.8959C33.6485 34.9836 33.6485 33.9699 33.6485 33.0575C33.6485 32.5507 33.2493 32.348 32.95 32.6521C32.3513 33.1589 31.8524 33.7671 31.2537 34.274C31.0541 34.4767 31.1539 34.6795 31.2537 34.7808C31.4532 34.9836 31.6528 34.9836 31.8524 34.7808C31.9521 34.6795 32.1517 34.4767 32.2515 34.3754C32.3513 34.274 32.4511 34.0712 32.6506 34.1726C32.8502 34.274 32.7504 34.4767 32.7504 34.5781C32.7504 35.6932 32.7504 36.9096 32.7504 38.0247C32.7504 38.3288 32.8502 38.7343 32.6506 38.937C32.4511 39.2411 32.1517 39.0384 31.9521 39.1397C31.7526 39.2411 31.4532 39.3425 31.553 39.6466C31.553 39.9507 31.7526 40.0521 32.0519 40.0521C32.8502 40.0521 33.7482 40.0521 34.5465 40.0521C34.9456 40.0521 35.1452 39.6466 34.9456 39.3425C34.8459 39.1397 34.5465 39.0384 34.3469 39.1397C33.848 39.2411 33.7482 38.937 33.7482 38.5315C33.6485 37.6192 33.6485 36.7069 33.6485 35.8959Z" fill="white"/>
<path d="M40.1345 38.6325C40.1345 35.6927 40.1345 32.8544 40.1345 29.9147C40.1345 29.3064 40.1345 29.2051 40.7332 29.2051C44.4252 29.2051 48.217 29.2051 51.9089 29.2051C52.5076 29.2051 52.6074 29.2051 52.6074 29.9147C52.6074 35.6927 52.6074 41.4708 52.6074 47.2489C52.6074 47.7558 52.4078 47.8571 52.0087 47.8571C48.217 47.8571 44.525 47.8571 40.7332 47.8571C40.1345 47.8571 40.1345 47.8571 40.1345 47.1475C40.1345 44.4106 40.1345 41.5722 40.1345 38.6325ZM46.4209 42.4845C46.9198 42.4845 47.4187 42.4845 47.9176 42.4845C48.217 42.4845 48.5163 42.4845 48.5163 41.9777C48.5163 41.5722 48.217 41.5722 47.9176 41.5722C47.3189 41.5722 46.6204 41.5722 46.0217 41.5722C45.9219 41.5722 45.7224 41.5722 45.6226 41.4708C45.5228 41.2681 45.7224 41.1667 45.8222 41.0654C46.1215 40.6599 46.4209 40.3558 46.7202 40.0517C47.4187 39.3421 48.1172 38.6325 48.4165 37.6188C48.7159 36.5037 48.217 35.3886 47.1193 34.9832C46.0217 34.5777 44.8243 34.9832 44.3254 35.8955C44.2256 36.1996 44.1258 36.5037 44.4252 36.6051C44.7245 36.8078 44.9241 36.6051 45.0239 36.301C45.1237 35.9969 45.3232 35.7941 45.6226 35.6927C46.2213 35.49 46.7202 35.5914 47.1193 35.9969C47.5185 36.4023 47.5185 36.9092 47.3189 37.5174C47.0196 38.227 46.4209 38.8352 45.9219 39.3421C45.2235 39.9503 44.6248 40.6599 44.2256 41.4708C43.9263 41.9777 44.1258 42.2818 44.7245 42.2818C45.3232 42.4845 45.9219 42.4845 46.4209 42.4845Z" fill="white"/>
<path d="M25.8655 40.9641C25.8655 43.0928 25.8655 45.1202 25.8655 47.249C25.8655 47.9586 25.8655 47.9586 25.2668 47.9586C21.475 47.9586 17.783 47.9586 13.9913 47.9586C13.4924 47.9586 13.3926 47.8572 13.3926 47.3504C13.3926 43.0928 13.3926 38.8353 13.3926 34.4764C13.3926 33.9695 13.5921 33.8682 13.9913 33.8682C17.783 33.8682 21.475 33.8682 25.2668 33.8682C25.7657 33.8682 25.9652 33.9695 25.9652 34.4764C25.8655 36.7065 25.8655 38.8353 25.8655 40.9641ZM19.8785 37.2134C18.7809 37.2134 18.1822 37.5175 17.783 38.2271C17.6833 38.4298 17.6833 38.7339 17.8828 38.9367C18.0824 39.1394 18.2819 38.9367 18.4815 38.7339C18.5813 38.6325 18.5813 38.5312 18.6811 38.5312C19.2798 37.923 20.3774 38.0243 20.6767 38.9367C20.9761 39.6462 20.577 40.4572 19.6789 40.6599C19.3796 40.7613 19.18 40.7613 19.18 41.0654C19.18 41.3695 19.3796 41.4709 19.6789 41.5723C19.7787 41.5723 19.8785 41.5723 19.8785 41.6736C20.3774 41.8764 20.7765 42.2819 20.7765 42.7887C20.7765 43.2956 20.4772 43.701 20.078 43.9038C19.5791 44.1065 19.0802 44.0052 18.6811 43.5997C18.5813 43.4983 18.4815 43.3969 18.3817 43.2956C18.1822 43.1942 18.0824 43.1942 17.8828 43.2956C17.6833 43.3969 17.6833 43.5997 17.6833 43.8024C17.6833 44.0051 17.8828 44.1065 17.9826 44.3093C18.6811 45.1202 19.9783 45.323 20.8763 44.6134C21.7744 43.9038 21.9739 42.586 21.2754 41.6736C21.0759 41.3695 20.9761 41.1668 21.2754 40.7613C21.7744 40.0517 21.7744 39.3421 21.475 38.5312C20.9761 37.5175 20.3774 37.112 19.8785 37.2134Z" fill="white"/>
<path d="M33.0498 48.9723C40.4338 48.9723 47.8177 48.9723 55.3014 48.9723C56.0997 48.9723 56.0997 48.9723 56.0997 49.6819C56.0997 51.2024 56.2993 50.9997 54.8025 50.9997C40.2342 50.9997 25.5661 50.9997 10.9978 50.9997C10.7982 50.9997 10.5986 50.9997 10.4988 50.9997C10.1995 50.9997 10.0997 50.8983 10.0997 50.5942C9.99993 50.4928 9.99993 50.4928 9.99993 50.4928C9.99993 48.5668 9.80036 48.9723 11.3969 48.9723C18.6811 48.8709 25.8654 48.9723 33.0498 48.9723Z" fill="white"/>
<path d="M31.1539 18.8656C31.1539 18.5615 30.9543 18.3587 30.7547 18.156C30.3556 17.7505 29.9565 17.4464 29.5573 17.0409C29.4575 16.9395 29.258 16.8382 29.3578 16.7368C29.3578 16.6354 29.5573 16.6354 29.7569 16.6354C30.3556 16.5341 30.8545 16.5341 31.4532 16.4327C31.8523 16.4327 32.0519 16.2299 32.1517 15.8245C32.3513 15.2162 32.6506 14.7094 32.8502 14.1012C32.8502 13.9998 32.95 13.8984 33.0497 13.8984C33.1495 13.8984 33.1495 13.9998 33.2493 14.1012C33.4489 14.7094 33.7482 15.2162 33.9478 15.8245C34.0476 16.2299 34.3469 16.4327 34.746 16.4327C35.245 16.4327 35.8437 16.5341 36.3426 16.5341C36.5421 16.5341 36.7417 16.5341 36.8415 16.7368C36.8415 16.9395 36.6419 17.0409 36.5421 17.1423C36.143 17.4464 35.7439 17.8519 35.3447 18.156C34.9456 18.4601 34.746 18.7642 34.9456 19.1697C35.1452 19.6765 35.245 20.2847 35.3447 20.7916C35.3447 20.9943 35.5443 21.1971 35.3447 21.2984C35.1452 21.2984 35.0454 21.0957 34.9456 21.0957C34.4467 20.7916 33.9478 20.4875 33.5487 20.1834C33.2493 19.9806 32.95 19.9806 32.6506 20.1834C32.1517 20.4875 31.6528 20.7916 31.1539 21.0957C31.0541 21.1971 30.9543 21.2984 30.8545 21.1971C30.6549 21.0957 30.8545 20.9943 30.8545 20.7916C30.8545 20.1834 31.0541 19.4738 31.1539 18.8656Z" fill="white"/>
</g>
<defs>
<linearGradient id="paint0_linear" x1="21.1255" y1="41.1428" x2="71.994" y2="41.1428" gradientUnits="userSpaceOnUse">
<stop offset="0.15" stop-color="#B27216"/>
<stop offset="0.23" stop-color="#B27216" stop-opacity="0.96"/>
<stop offset="0.35" stop-color="#B27216" stop-opacity="0.84"/>
<stop offset="0.5" stop-color="#B27216" stop-opacity="0.65"/>
<stop offset="0.67" stop-color="#B27216" stop-opacity="0.39"/>
<stop offset="0.85" stop-color="#B27216" stop-opacity="0.06"/>
<stop offset="0.88" stop-color="#B27216" stop-opacity="0"/>
</linearGradient>
<clipPath id="clip0">
<rect width="46" height="37" fill="white" transform="translate(10 14)"/>
</clipPath>
</defs>
</svg>
