<svg width="66" height="66" viewBox="0 0 66 66" fill="none" xmlns="http://www.w3.org/2000/svg">
<path d="M32.8457 65.6915C50.9859 65.6915 65.6915 50.9859 65.6915 32.8457C65.6915 14.7055 50.9859 0 32.8457 0C14.7055 0 0 14.7055 0 32.8457C0 50.9859 14.7055 65.6915 32.8457 65.6915Z" fill="#F8D309"/>
<path d="M65.6913 32.8459C65.703 41.3899 62.3834 49.6019 56.4375 55.7377C50.4917 61.8734 42.3881 65.4495 33.8479 65.7063C25.3077 65.9631 17.0039 62.8805 10.7001 57.1131C4.39626 51.3457 0.589185 43.348 0.0874618 34.8187C-0.414261 26.2895 2.4289 17.9006 8.01305 11.4339C13.5972 4.96724 21.4824 0.932286 29.9938 0.186077C38.5052 -0.560132 46.9722 2.04119 53.5964 7.43753C60.2206 12.8339 64.4801 20.6 65.4702 29.0865C65.6157 30.3344 65.6895 31.5896 65.6913 32.8459Z" fill="#F8D309"/>
<path d="M65.6915 32.8457C65.6909 40.2095 63.2168 47.3597 58.6661 53.1491C54.1155 58.9385 47.752 63.0315 40.5967 64.7715L17.1917 53.1491L32.6917 50.4946L34.4342 51.105C35.6803 52.9444 37.965 49.961 40.1218 50.4946C42.2785 51.0283 44.5565 50.7448 46.5166 49.6987L46.6294 49.7252V49.6368C48.0183 48.8701 49.1796 47.7497 49.9956 46.3892C50.8117 45.0287 46.4941 42.5863 46.5166 41C46.5391 39.4137 40.4688 41.883 39.6917 40.5C38.9145 39.117 37.0583 35.3057 35.6917 34.5V26.5L33.6917 13L36.1917 14L65.477 29.0863C65.62 30.3344 65.6916 31.5895 65.6915 32.8457Z" fill="url(#paint0_linear)"/>
<g clip-path="url(#clip0)">
<path d="M17.8333 53.0001C17.2488 52.7065 16.9565 52.2661 17.0296 51.6056C17.0296 51.0918 17.0296 50.5047 17.0296 49.9909C17.0296 49.4771 17.0296 49.4771 17.5411 49.4771C19.3678 49.4771 21.1945 49.4771 23.0212 49.4771C30.9127 49.4771 38.8041 49.4771 46.6956 49.4771C47.4262 49.4771 47.3532 49.4037 47.3532 50.1377C47.3532 50.6514 47.3532 51.0918 47.3532 51.6056C47.4262 52.2661 47.134 52.7065 46.5494 53.0001C36.9774 53.0001 27.4054 53.0001 17.8333 53.0001Z" fill="white"/>
<path d="M32.1549 36.633C30.4743 36.633 28.8668 36.633 27.1862 36.633C27.0401 36.633 26.894 36.7064 26.8209 36.5596C26.7478 36.4128 26.894 36.266 26.967 36.1926C28.5745 33.477 28.4284 30.688 26.967 27.899C26.7478 27.4587 26.3094 27.0183 26.0171 26.6513C23.9712 24.1559 23.3866 21.3669 24.4827 18.3578C25.6518 15.3486 27.8438 13.5871 30.9858 13.0734C35.6622 12.3394 39.9002 15.6422 40.3386 20.3394C40.5578 22.8348 39.8271 25.0367 38.0735 26.9449C36.9775 28.1192 36.466 29.5137 36.3198 31.1284C36.1006 32.9633 36.466 34.6513 37.4159 36.266C37.6351 36.5596 37.562 36.633 37.1967 36.633C35.5161 36.633 33.8355 36.633 32.1549 36.633Z" fill="white"/>
<path d="M32.228 47.1285C27.1132 47.1285 21.9984 47.1285 16.9566 47.1285C14.9838 47.1285 14.6915 46.835 14.7645 44.8533C14.7645 44.046 14.8376 43.1652 15.203 42.4313C16.299 40.1561 18.0526 38.835 20.537 38.835C28.2823 38.835 36.1007 38.835 43.846 38.835C46.8418 38.835 49.3261 41.0368 49.6915 43.9726C49.7645 44.6331 49.7645 45.3671 49.6915 46.101C49.6915 46.6882 49.1069 47.1285 48.5224 47.1285C47.3533 47.1285 46.1111 47.1285 44.942 47.1285C40.704 47.1285 36.466 47.1285 32.228 47.1285Z" fill="white"/>
</g>
<defs>
<linearGradient id="paint0_linear" x1="21.1255" y1="41.1428" x2="71.994" y2="41.1428" gradientUnits="userSpaceOnUse">
<stop offset="0.15" stop-color="#B27216"/>
<stop offset="0.23" stop-color="#B27216" stop-opacity="0.96"/>
<stop offset="0.35" stop-color="#B27216" stop-opacity="0.84"/>
<stop offset="0.5" stop-color="#B27216" stop-opacity="0.65"/>
<stop offset="0.67" stop-color="#B27216" stop-opacity="0.39"/>
<stop offset="0.85" stop-color="#B27216" stop-opacity="0.06"/>
<stop offset="0.88" stop-color="#B27216" stop-opacity="0"/>
</linearGradient>
<clipPath id="clip0">
<rect width="35" height="40" fill="white" transform="translate(14.6914 13)"/>
</clipPath>
</defs>
</svg>
