<svg width="20" height="20" viewBox="0 0 20 20" fill="none" xmlns="http://www.w3.org/2000/svg">
<path d="M19.848 8.22795C20.8017 13.6743 17.1687 18.8937 11.7191 19.8468C10.9925 19.983 10.2205 20.0284 9.49387 19.983C8.58561 19.9376 7.67735 19.7561 6.85992 19.4837C6.0879 19.2568 5.4067 18.8937 4.72551 18.4852C4.49844 18.3491 4.31679 18.2129 4.13514 18.0768C3.27229 17.4414 2.50027 16.7152 1.86449 15.8528C1.77367 15.7167 1.63743 15.5351 1.5466 15.399C0.865409 14.3097 0.365867 13.0843 0.138802 11.7681C0.138802 11.6319 0.0933895 11.5411 0.0933895 11.405C-0.633218 6.09479 2.9544 1.10231 8.26772 0.149196C9.58469 -0.0777351 10.8563 -0.0323489 12.0824 0.194582C12.3095 0.239969 12.5365 0.285355 12.7636 0.376127C13.7627 0.648445 14.7164 1.10231 15.5792 1.69233C15.7609 1.82849 15.9425 1.96465 16.1242 2.1008C16.7599 2.60005 17.3503 3.19007 17.8498 3.82548C18.3948 4.50627 18.8035 5.23245 19.1668 6.04941C19.4393 6.63943 19.6209 7.22945 19.7572 7.91024C19.8026 8.00102 19.848 8.09179 19.848 8.22795Z" fill="url(#paint0_linear)"/>
<g opacity="0.3">
<path opacity="0.3" d="M19.1668 6.00471L9.53922 19.9837C8.63096 19.9383 7.72271 19.7567 6.90527 19.4844L17.8952 3.82617C18.3947 4.50697 18.8489 5.23315 19.1668 6.00471Z" fill="#F2F0F3"/>
</g>
<g opacity="0.3">
<path opacity="0.3" d="M12.7639 0.376857L1.86477 15.899C1.77394 15.7174 1.6377 15.5359 1.54688 15.3997L12.0373 0.195312C12.3097 0.240699 12.5368 0.286085 12.7639 0.376857Z" fill="#F2F0F3"/>
</g>
<g opacity="0.3">
<path opacity="0.3" d="M16.1243 2.10184L4.72562 18.5317C4.49856 18.3955 4.31691 18.2593 4.13525 18.1232L15.5793 1.69336C15.761 1.82952 15.9426 1.96568 16.1243 2.10184Z" fill="#F2F0F3"/>
</g>
<path d="M17.8503 8.59095C17.8503 8.7271 17.8957 8.81788 17.8957 8.95403C18.4407 13.175 15.5796 17.1236 11.3562 17.8951C7.17825 18.6213 3.09108 15.8981 2.18282 11.768C2.13741 11.6318 2.13741 11.5411 2.092 11.4049C1.31998 7.04781 4.22641 2.87228 8.58605 2.10071C12.9457 1.32915 17.0783 4.23387 17.8503 8.59095Z" fill="url(#paint1_linear)"/>
<path d="M17.9408 8.95471C18.4857 13.1756 15.6247 17.1242 11.4013 17.8958C11.3105 17.8958 11.2197 17.9412 11.1288 17.9412C10.1752 18.0773 9.22148 18.032 8.35864 17.8504C7.45038 17.6689 6.63294 17.3058 5.86092 16.8519C5.67927 16.7158 5.49762 16.625 5.27056 16.4888C4.45312 15.8534 3.72652 15.0818 3.18156 14.1741C3.04532 13.9472 2.90909 13.7203 2.81826 13.4933C2.54578 12.9487 2.36413 12.3587 2.22789 11.7687C1.59211 7.54773 4.49854 3.59913 8.72194 2.82757C9.22148 2.73679 9.76644 2.69141 10.3114 2.69141C10.5839 2.69141 10.8563 2.73679 11.1288 2.73679C12.2187 2.87295 13.2178 3.23604 14.1261 3.73529C14.3077 3.87145 14.5348 3.96222 14.7164 4.09838C15.4431 4.59763 16.0788 5.23304 16.6238 5.95921C17.1233 6.68539 17.532 7.45696 17.8045 8.3193C17.8499 8.54623 17.8953 8.72778 17.9408 8.95471Z" fill="url(#paint2_linear)"/>
<g opacity="0.2">
<path opacity="0.2" d="M17.7594 8.36445L11.0837 17.8956C10.13 18.0317 9.17632 17.9863 8.31348 17.8048L16.5786 5.95898C17.0782 6.68516 17.4869 7.50212 17.7594 8.36445Z" fill="url(#paint3_linear)"/>
</g>
<g opacity="0.2">
<path opacity="0.2" d="M11.0835 2.78218L3.13625 14.1741C3.00001 13.9472 2.86378 13.7203 2.77295 13.4933L10.3115 2.69141C10.584 2.69141 10.811 2.73679 11.0835 2.78218Z" fill="url(#paint4_linear)"/>
</g>
<g opacity="0.2">
<path opacity="0.2" d="M14.671 4.14434L5.81547 16.8525C5.63381 16.7163 5.45216 16.6256 5.2251 16.4894L14.0806 3.78125C14.3077 3.87202 14.4893 4.00818 14.671 4.14434Z" fill="url(#paint5_linear)"/>
</g>
<g opacity="0.5">
<path opacity="0.5" d="M6.76905 7.27407C7.67731 6.23018 8.81263 5.68555 10.1296 5.68555C11.8553 5.68555 13.1723 6.77482 13.1723 8.49949C13.1723 9.99724 12.4911 10.4965 11.1287 11.3588C10.4929 11.7673 9.49382 12.5843 9.22135 13.0835H11.492V12.0396H13.6718V14.7628H6.67822V12.902C7.40483 11.7673 7.72272 11.3588 8.54015 10.7234C9.44841 9.90647 10.8108 9.36183 10.8108 8.59027C10.8108 7.95486 10.3113 7.72793 9.72089 7.72793C9.0397 7.72793 8.54015 8.27256 8.13144 8.72642L6.76905 7.27407Z" fill="url(#paint6_linear)"/>
</g>
<path d="M6.77051 6.77406C7.67877 5.73018 8.8141 5.18555 10.1311 5.18555C11.8568 5.18555 13.1737 6.27482 13.1737 7.99949C13.1737 9.49724 12.4925 9.99649 11.1302 10.8588C10.4944 11.2673 9.49529 12.0843 9.22281 12.5835H11.4935V11.5396H13.6733V14.2628H6.67969V12.402C7.40629 11.2673 7.72418 10.8588 8.54162 10.2234C9.44988 9.40647 10.8123 8.86183 10.8123 8.09027C10.8123 7.45486 10.3127 7.22793 9.72235 7.22793C9.04116 7.22793 8.54162 7.77256 8.1329 8.22642L6.77051 6.77406Z" fill="url(#paint7_linear)"/>
<defs>
<linearGradient id="paint0_linear" x1="9.98092" y1="5.69585" x2="9.98092" y2="26.2227" gradientUnits="userSpaceOnUse">
<stop offset="0.0318627" stop-color="#E9E9E5"/>
<stop offset="1" stop-color="#ABAFA4"/>
</linearGradient>
<linearGradient id="paint1_linear" x1="1.96961" y1="9.98616" x2="17.9929" y2="9.98616" gradientUnits="userSpaceOnUse">
<stop stop-color="#8B8F89"/>
<stop offset="1" stop-color="#ABAFA4"/>
</linearGradient>
<linearGradient id="paint2_linear" x1="10.7408" y1="1.92842" x2="9.75065" y2="13.9277" gradientUnits="userSpaceOnUse">
<stop offset="0.0318627" stop-color="#E9E9E5"/>
<stop offset="1" stop-color="#ABAFA4"/>
</linearGradient>
<linearGradient id="paint3_linear" x1="13.047" y1="10.7149" x2="13.047" y2="37.4656" gradientUnits="userSpaceOnUse">
<stop offset="0.0318627" stop-color="#E9E9E5"/>
<stop offset="1" stop-color="#ABAFA4"/>
</linearGradient>
<linearGradient id="paint4_linear" x1="6.93264" y1="10.7151" x2="6.93264" y2="37.4657" gradientUnits="userSpaceOnUse">
<stop offset="0.0318627" stop-color="#E9E9E5"/>
<stop offset="1" stop-color="#ABAFA4"/>
</linearGradient>
<linearGradient id="paint5_linear" x1="9.9633" y1="10.7157" x2="9.9633" y2="37.4663" gradientUnits="userSpaceOnUse">
<stop offset="0.0318627" stop-color="#E9E9E5"/>
<stop offset="1" stop-color="#ABAFA4"/>
</linearGradient>
<linearGradient id="paint6_linear" x1="10.3391" y1="7.56721" x2="10.1665" y2="11.6248" gradientUnits="userSpaceOnUse">
<stop stop-color="#8B8F89"/>
<stop offset="1" stop-color="#ABAFA4"/>
</linearGradient>
<linearGradient id="paint7_linear" x1="10.1418" y1="12.3509" x2="10.1418" y2="26.3501" gradientUnits="userSpaceOnUse">
<stop offset="0.0318627" stop-color="#E9E9E5"/>
<stop offset="1" stop-color="#ABAFA4"/>
</linearGradient>
</defs>
</svg>
