<svg width="139" height="52" viewBox="0 0 139 52" fill="none" xmlns="http://www.w3.org/2000/svg">
<g clip-path="url(#clip0)">
<path opacity="0.2" fill-rule="evenodd" clip-rule="evenodd" d="M126.287 8.94531C94.362 8.94531 62.4372 8.94531 30.5124 8.94531C20.3417 8.94531 18.0815 19.0098 18.0815 29.0743C18.0815 38.8593 19.4941 48.9238 30.5124 48.9238C62.4372 48.9238 94.362 48.9238 126.287 48.9238C137.305 48.9238 138.718 39.1389 138.718 29.0743C139 19.0098 136.74 8.94531 126.287 8.94531Z" fill="black"/>
<path fill-rule="evenodd" clip-rule="evenodd" d="M126.287 6.99023C94.362 6.99023 62.4372 6.99023 30.5124 6.99023C20.3417 6.99023 18.0815 17.0547 18.0815 27.1193C18.0815 36.9042 19.4941 46.9687 30.5124 46.9687C62.4372 46.9687 94.362 46.9687 126.287 46.9687C137.305 46.9687 138.718 37.1838 138.718 27.1193C139 17.0547 136.74 6.99023 126.287 6.99023Z" fill="white"/>
<path fill-rule="evenodd" clip-rule="evenodd" d="M122.897 9.78516C93.2321 9.78516 63.85 9.78516 34.1854 9.78516C24.8622 9.78516 22.6021 17.8927 22.6021 26.0002C22.6021 33.8282 24.0147 41.6561 34.1854 41.6561C63.85 41.6561 93.2321 41.6561 122.897 41.6561C133.068 41.6561 134.48 33.8282 134.48 26.0002C134.48 17.8927 132.502 9.78516 122.897 9.78516Z" fill="#FDC130"/>
<path fill-rule="evenodd" clip-rule="evenodd" d="M126.287 45.2923H30.7947C19.7764 45.2923 18.3638 35.7869 18.3638 26.002C18.3638 26.2815 18.3638 26.5611 18.3638 26.8407C18.3638 36.6256 19.7764 46.6901 30.7947 46.6901H126.569C137.587 46.6901 139 36.9052 139 26.8407C139 26.5611 139 26.2815 139 26.002C139 35.7869 137.305 45.2923 126.287 45.2923Z" fill="#E5E5E5"/>
<path fill-rule="evenodd" clip-rule="evenodd" d="M122.897 38.301H34.1854C24.5797 38.301 22.8846 31.5914 22.6021 24.043C22.6021 24.6021 22.6021 25.1612 22.6021 25.7204C22.6021 33.5483 24.0147 41.3763 34.1854 41.3763H122.897C133.068 41.3763 134.48 33.5483 134.48 25.7204C134.48 25.1612 134.48 24.6021 134.48 24.043C134.198 31.5914 132.502 38.301 122.897 38.301Z" fill="#FFE458"/>
<path fill-rule="evenodd" clip-rule="evenodd" d="M122.897 38.5803H34.1854C24.5797 38.5803 22.8846 31.8707 22.6021 24.3223C22.6021 24.8814 22.6021 25.161 22.6021 25.7201C22.6021 33.5481 24.0147 41.376 34.1854 41.376H122.897C133.068 41.376 134.48 33.5481 134.48 25.7201C134.48 25.161 134.48 24.8814 134.48 24.3223C134.198 31.8707 132.502 38.5803 122.897 38.5803Z" fill="#D39700"/>
<path fill-rule="evenodd" clip-rule="evenodd" d="M23.4497 31.0338C24.5798 35.2273 27.6875 38.5821 34.1855 38.5821H122.897C129.677 38.5821 132.503 35.2273 133.633 30.4746C87.0168 35.2273 49.7241 35.5069 23.4497 31.0338Z" fill="#FFB600"/>
<path fill-rule="evenodd" clip-rule="evenodd" d="M124.592 10.0645C124.027 10.0645 123.462 10.0645 122.897 10.0645H34.1854C33.6203 10.0645 33.0553 10.0645 32.4903 10.0645C25.1447 10.9032 22.8846 17.3333 22.6021 24.3225C22.6021 24.6021 22.6021 24.8817 22.6021 25.1612C23.1671 17.8924 25.7098 11.1827 34.1854 11.1827H122.897C131.655 11.1827 134.198 17.8924 134.48 24.8817C134.48 24.6021 134.48 24.3225 134.48 24.0429C134.198 17.3333 131.937 10.9032 124.592 10.0645Z" fill="#FFE458"/>
<path fill-rule="evenodd" clip-rule="evenodd" d="M123.462 13.4219C105.38 13.4219 75.9983 13.4219 57.917 13.4219C51.9841 13.4219 50.854 19.2928 50.854 24.8842C50.854 30.4756 51.7016 36.067 57.917 36.067C75.9983 36.067 105.38 36.067 123.462 36.067C129.677 36.067 130.525 30.4756 130.525 24.8842C130.807 19.2928 129.395 13.4219 123.462 13.4219Z" fill="#D39700"/>
<path fill-rule="evenodd" clip-rule="evenodd" d="M123.462 14.8203C105.38 14.8203 75.9983 14.8203 57.917 14.8203C51.9841 14.8203 50.854 20.1321 50.854 25.7235C50.854 31.0354 51.7016 36.3472 57.917 36.3472C75.9983 36.3472 105.38 36.3472 123.462 36.3472C129.677 36.3472 130.525 31.0354 130.525 25.7235C130.807 20.1321 129.395 14.8203 123.462 14.8203Z" fill="#FFE458"/>
<path fill-rule="evenodd" clip-rule="evenodd" d="M123.462 14.8203C105.38 14.8203 75.9983 14.8203 57.917 14.8203C51.9841 14.8203 50.854 19.8526 50.854 24.8848C50.854 29.9171 51.7016 34.9493 57.917 34.9493C75.9983 34.9493 105.38 34.9493 123.462 34.9493C129.677 34.9493 130.525 29.9171 130.525 24.8848C130.807 19.8526 129.395 14.8203 123.462 14.8203Z" fill="#FFB600"/>
<path opacity="0.2" fill-rule="evenodd" clip-rule="evenodd" d="M26.2743 2.51827C20.3414 1.67956 14.1259 3.35698 9.04058 7.55053C3.95522 11.7441 0.847493 17.615 0.282453 24.0452C-0.565108 30.4753 1.13001 36.9054 4.80278 42.4968C8.75806 47.8086 14.4085 51.1634 20.3414 52.0021C26.2743 52.8409 32.4898 51.1634 37.5751 46.9699C42.6605 42.7763 45.7682 36.9054 46.3333 30.4753C47.1808 24.0452 45.4857 17.615 41.8129 12.0236C37.8577 6.43225 32.2073 3.35698 26.2743 2.51827ZM40.1178 29.6366C39.5528 34.3892 37.2926 38.5828 33.6199 41.6581C29.9471 44.7333 25.4268 45.8516 20.9064 45.2925C16.6686 44.7333 12.4308 42.2172 9.60562 38.3032C6.78042 34.3892 5.65034 29.357 6.21538 24.8839C6.78042 20.1312 9.04058 15.9376 12.7133 12.8624C16.6686 9.50752 21.189 8.38924 25.4268 8.94838C29.6646 9.50752 33.9024 12.0236 36.7276 15.9376C39.5528 20.1312 40.6829 24.8839 40.1178 29.6366Z" fill="black"/>
<path fill-rule="evenodd" clip-rule="evenodd" d="M26.2743 0.281153C20.3414 -0.557556 14.1259 0.840293 9.04058 5.03384C3.95522 9.22739 0.847493 15.3779 0.282453 21.5285C-0.565108 27.9586 1.13001 34.3887 4.80278 39.9801C8.75806 45.2919 14.4085 48.6467 20.3414 49.4855C26.2743 50.3242 32.4898 48.6467 37.5751 44.4532C42.6605 40.2596 45.7682 34.3887 46.3333 27.9586C47.1808 21.5285 45.4857 15.0984 41.8129 9.50696C37.8577 4.19513 32.2072 1.11986 26.2743 0.281153ZM40.1178 27.1199C39.5528 31.8726 37.2926 36.0661 33.6199 39.1414C29.9471 42.2166 25.4268 43.3349 20.9064 42.7758C16.6686 42.2166 12.4308 39.7005 9.60562 35.7865C6.78042 31.8726 5.65034 27.1199 6.21538 22.3672C6.78042 17.6145 9.04058 13.4209 12.7133 10.3457C16.6686 7.2704 21.189 6.15212 25.4268 6.71126C29.6646 7.2704 33.9024 9.78653 36.7276 13.7005C39.5528 17.6145 40.6829 22.6467 40.1178 27.1199Z" fill="white"/>
<path fill-rule="evenodd" clip-rule="evenodd" d="M11.0185 6.4293C1.9778 13.6981 0.565198 27.397 7.34569 36.6228C14.1262 46.1282 26.8396 47.8056 35.5977 40.5368C44.3558 33.268 46.051 19.8487 39.2705 10.3433C32.49 0.8379 19.7766 -0.83952 11.0185 6.4293Z" fill="#CBCBCB"/>
<path fill-rule="evenodd" clip-rule="evenodd" d="M13.561 8.39104C6.7805 13.7029 5.3679 23.4878 10.7358 30.1975C16.1037 36.9072 25.9919 38.305 32.7724 32.9932C39.5529 27.6814 40.9655 17.8964 35.5976 11.1867C30.5122 4.47706 20.624 3.35878 13.561 8.39104Z" fill="#F3F3F3"/>
<path opacity="0.2" d="M14.1358 8.41595L13.4644 8.92773L14.8435 10.6995L15.5149 10.1878L14.1358 8.41595Z" fill="black"/>
<path opacity="0.2" d="M9.23463 14.4862L8.91162 15.2617L11.0014 16.1141L11.3244 15.3386L9.23463 14.4862Z" fill="black"/>
<path opacity="0.2" d="M10.3912 22.2173L8.15088 22.5137L8.26318 23.345L10.5035 23.0487L10.3912 22.2173Z" fill="black"/>
<path opacity="0.2" d="M12.7975 28.5096L11.0059 29.873L11.5225 30.5379L13.3142 29.1745L12.7975 28.5096Z" fill="black"/>
<path opacity="0.2" d="M18.2268 32.7582L17.3657 34.8262L18.1494 35.1457L19.0105 33.0778L18.2268 32.7582Z" fill="black"/>
<path opacity="0.2" d="M25.8259 33.4926L24.9858 33.6035L25.2849 35.8204L26.125 35.7094L25.8259 33.4926Z" fill="black"/>
<path opacity="0.2" d="M31.9849 30.6893L31.3135 31.2012L32.6929 32.973L33.3643 32.4611L31.9849 30.6893Z" fill="black"/>
<path opacity="0.2" d="M35.8923 25.0468L35.5693 25.8223L37.6591 26.6744L37.982 25.8989L35.8923 25.0468Z" fill="black"/>
<path opacity="0.2" d="M38.6587 18.3078L36.4185 18.6035L36.5305 19.4348L38.7708 19.1392L38.6587 18.3078Z" fill="black"/>
<path opacity="0.2" d="M35.3042 10.8436L33.5142 12.209L34.0316 12.8732L35.8216 11.5078L35.3042 10.8436Z" fill="black"/>
<path opacity="0.2" d="M28.8971 6.37912L28.0366 8.44727L28.8204 8.76656L29.6808 6.69842L28.8971 6.37912Z" fill="black"/>
<path opacity="0.2" d="M21.5989 5.55684L20.7588 5.66797L21.0583 7.88485L21.8984 7.77372L21.5989 5.55684Z" fill="black"/>
<path opacity="0.2" fill-rule="evenodd" clip-rule="evenodd" d="M30.7946 11.7447C30.2295 11.4651 29.6645 11.7447 29.382 12.0243L24.5791 21.2501C24.2966 21.8092 24.2966 22.3684 24.8617 22.6479C25.4267 22.9275 25.9917 22.6479 26.2743 22.3684L31.3596 13.4221C31.6421 12.863 31.3596 12.0243 30.7946 11.7447Z" fill="black"/>
<path opacity="0.2" fill-rule="evenodd" clip-rule="evenodd" d="M25.7093 20.9729C24.5792 20.4138 23.4491 20.6934 22.8841 21.8116C22.319 22.9299 22.6016 24.0482 23.7316 24.6073C24.8617 25.1665 25.9918 24.8869 26.5568 23.7686C27.1219 22.9299 26.8394 21.5321 25.7093 20.9729Z" fill="black"/>
<path fill-rule="evenodd" clip-rule="evenodd" d="M24.014 22.3694C23.7315 22.649 24.014 23.2081 24.2965 23.2081C24.579 23.4877 25.1441 23.2081 25.1441 22.9286C25.4266 22.9286 25.4266 22.3694 25.1441 22.0898C24.8616 22.0898 24.2965 22.0898 24.014 22.3694Z" fill="white"/>
<path fill-rule="evenodd" clip-rule="evenodd" d="M37.858 34.3895C37.2929 35.2282 36.4454 35.7874 35.5978 36.6261C27.4047 43.3357 15.8214 42.2175 8.75838 34.3895C8.19334 33.8304 7.91082 33.2712 7.34578 32.7121C4.80309 29.3573 3.67301 25.4433 3.10797 21.5293C2.82545 26.8411 3.95553 32.153 7.34578 36.6261C14.1263 46.1314 26.8397 47.8089 35.5978 40.54C41.2482 35.7874 44.0734 28.5185 43.5084 21.5293C42.9433 26.282 40.9657 30.7551 37.858 34.3895Z" fill="#E5E5E5"/>
<path fill-rule="evenodd" clip-rule="evenodd" d="M37.8579 34.9481C37.2929 35.7868 36.4453 36.346 35.5977 37.1847C27.4047 43.8943 15.8213 42.7761 8.75832 34.9481C8.19327 34.389 7.91075 33.8298 7.34571 33.2707C4.80303 29.9158 3.67295 26.0019 3.10791 22.0879C3.10791 22.647 3.10791 23.2062 3.10791 23.7653C3.10791 28.2384 4.52051 32.7115 7.34571 36.6255C14.1262 46.1309 26.8396 47.8083 35.5977 40.5395C40.6831 36.346 43.5083 30.1954 43.5083 23.7653C43.5083 23.2062 43.5083 22.647 43.5083 22.0879C42.9433 26.8406 40.9656 31.3137 37.8579 34.9481Z" fill="#989898"/>
<path fill-rule="evenodd" clip-rule="evenodd" d="M11.0185 6.4293C6.21563 10.3433 3.67295 15.6551 3.10791 21.5261C3.10791 21.8056 3.10791 22.0852 3.10791 22.6444C3.95547 17.3325 6.49815 12.3003 10.736 8.66586C19.4941 1.39704 32.2075 3.07446 38.988 12.5798C41.2481 15.6551 42.3782 19.0099 42.9433 22.6444C42.9433 22.3648 42.9433 22.0852 42.9433 21.5261C42.6608 17.6121 41.2481 13.6981 38.7055 10.3433C32.49 0.8379 19.7766 -0.83952 11.0185 6.4293Z" fill="#E5E5E5"/>
<path fill-rule="evenodd" clip-rule="evenodd" d="M40.1181 27.3994C38.988 29.3564 37.2929 31.3134 35.5977 32.7112C26.8396 39.98 14.1262 38.3026 7.34571 28.7973C7.06319 28.5177 6.49815 27.9585 6.21563 27.3994C4.80303 25.1628 3.95547 22.9263 3.39043 20.6897C3.39043 21.2489 3.10791 21.808 3.10791 22.6467C3.67295 26.2811 4.80303 29.636 7.06319 32.7112C7.62823 33.2704 7.91076 33.8295 8.4758 34.3886C15.5388 42.2166 27.1221 43.3349 35.3152 36.6252C36.1628 36.0661 37.0103 35.2274 37.5754 34.3886C40.6831 31.0338 42.3782 26.8403 42.9433 22.3671C42.9433 21.808 42.6608 21.2489 42.6608 20.4102C42.3782 23.2059 41.5307 25.4424 40.1181 27.3994Z" fill="#B2B2B2"/>
<path fill-rule="evenodd" clip-rule="evenodd" d="M46.3334 25.7209C45.4859 32.151 42.6607 38.022 37.5753 42.2156C32.4899 46.4091 26.2745 48.0865 20.3416 47.2478C14.4086 46.4091 8.75823 43.3338 4.80295 37.7424C1.69522 33.5489 0.282621 28.5166 0.00010035 23.7639C-0.28242 29.3553 1.4127 35.2263 4.80295 39.979C8.75823 45.2908 14.4086 48.6457 20.3416 49.4844C26.2745 50.3231 32.4899 48.6457 37.5753 44.4521C42.6607 40.2586 45.7684 34.3876 46.3334 27.9575C46.616 26.5596 46.616 25.1618 46.616 23.4844C46.3334 24.3231 46.3334 25.1618 46.3334 25.7209Z" fill="#E5E5E5"/>
</g>
<defs>
<clipPath id="clip0">
<rect width="139" height="52" fill="white"/>
</clipPath>
</defs>
</svg>
