<svg width="66" height="66" viewBox="0 0 66 66" fill="none" xmlns="http://www.w3.org/2000/svg">
<path d="M32.8457 65.5246C50.9859 65.5246 65.6914 50.8564 65.6914 32.7623C65.6914 14.6682 50.9859 0 32.8457 0C14.7055 0 0 14.6682 0 32.7623C0 50.8564 14.7055 65.5246 32.8457 65.5246Z" fill="#F8D309"/>
<path d="M65.6915 32.7623C65.6922 41.0657 62.5319 49.0596 56.8495 55.1276C51.1672 61.1956 43.3867 64.8849 35.0814 65.4496C34.3443 65.5011 33.5991 65.5261 32.8457 65.5246C26.3495 65.5246 19.9991 63.6031 14.5976 60.0031C9.19618 56.4032 4.98626 51.2864 2.50025 45.2999C0.0142314 39.3134 -0.636223 32.726 0.631136 26.3707C1.8985 20.0154 5.02675 14.1778 9.6203 9.59587C14.2139 5.01398 20.0664 1.89367 26.4379 0.629533C32.8093 -0.634607 39.4135 0.0141952 45.4152 2.4939C51.417 4.9736 56.5468 9.17282 60.1559 14.5606C63.7651 19.9483 65.6915 26.2825 65.6915 32.7623V32.7623Z" fill="#F8D309"/>
<path d="M37.8215 14.7852L32.9564 19.5276L30.1369 21.7885L32.3483 23.8068L30.9529 25.2074L27.156 24.4905L26.1609 25.042L22.6735 27.6889L22.2312 33.9378L35.1457 48.9371L15.1548 50.4083L30.4377 65.6502C30.9574 65.6745 31.477 65.6899 32.0033 65.6899C39.4635 65.6868 46.7193 63.2577 52.6708 58.771C58.6224 54.2842 62.9452 47.9844 64.9839 40.8265L37.8215 14.7852Z" fill="url(#paint0_linear)"/>
<path d="M35.1301 21.0563C35.1765 21.103 35.2318 21.1401 35.2927 21.1654C35.3537 21.1908 35.419 21.2038 35.485 21.2038C35.551 21.2038 35.6163 21.1908 35.6773 21.1654C35.7382 21.1401 35.7935 21.103 35.8399 21.0563L39.4799 17.4278C39.5267 17.3814 39.5639 17.3263 39.5893 17.2655C39.6147 17.2047 39.6278 17.1396 39.6278 17.0737C39.6278 17.0079 39.6147 16.9427 39.5893 16.882C39.5639 16.8212 39.5267 16.7661 39.4799 16.7197L39.3096 16.5477C39.7187 16.1396 38.3145 14.075 36.1716 11.9376C34.0288 9.80022 31.97 8.40838 31.5498 8.80983L31.3796 8.63778C31.3331 8.59103 31.2778 8.55392 31.2169 8.5286C31.156 8.50327 31.0906 8.49023 31.0246 8.49023C30.9586 8.49023 30.8933 8.50327 30.8324 8.5286C30.7714 8.55392 30.7162 8.59103 30.6697 8.63778L27.0298 12.2685C26.9829 12.3148 26.9457 12.37 26.9203 12.4307C26.8949 12.4915 26.8818 12.5567 26.8818 12.6225C26.8818 12.6883 26.8949 12.7535 26.9203 12.8143C26.9457 12.875 26.9829 12.9302 27.0298 12.9765L35.1301 21.0563Z" fill="white"/>
<path d="M18.2261 21.7559C18.1796 21.7092 18.1243 21.6721 18.0634 21.6468C18.0025 21.6214 17.9371 21.6084 17.8711 21.6084C17.8051 21.6084 17.7398 21.6214 17.6789 21.6468C17.618 21.6721 17.5627 21.7092 17.5162 21.7559L13.8763 25.3844C13.7825 25.479 13.73 25.6066 13.73 25.7396C13.73 25.8725 13.7825 26.0001 13.8763 26.0947L14.0488 26.2645C13.6396 26.6748 15.0439 28.7372 17.1867 30.8746C19.3295 33.012 21.3883 34.4038 21.8063 34.0046L21.9788 34.1744C22.0252 34.2212 22.0805 34.2583 22.1415 34.2836C22.2024 34.3089 22.2677 34.322 22.3337 34.322C22.3997 34.322 22.4651 34.3089 22.526 34.2836C22.5869 34.2583 22.6422 34.2212 22.6886 34.1744L26.3286 30.557C26.4223 30.4624 26.4749 30.3348 26.4749 30.2018C26.4749 30.0689 26.4223 29.9413 26.3286 29.8467L18.2261 21.7559Z" fill="white"/>
<path d="M52.1203 43.0586C51.4238 42.3616 43.2748 35.0076 37.8304 30.724C38.1267 30.0622 38.1245 29.4204 37.7552 29.0498C37.6562 28.9448 37.5222 28.8797 37.3783 28.8667C37.2345 28.8536 37.0908 28.8937 36.9746 28.9792C36.476 27.6601 35.7087 26.4584 34.7212 25.45C33.883 24.614 33.2506 24.3758 32.7 24.4684C32.7487 24.3041 32.7827 24.1358 32.8017 23.9655C32.8084 23.8614 32.7857 23.7575 32.7363 23.6655C32.6868 23.5736 32.6125 23.4974 32.5217 23.4455C32.431 23.3936 32.3275 23.3681 32.223 23.3719C32.1185 23.3757 32.0171 23.4086 31.9304 23.467L32.6535 22.7435L28.9981 19.0863L32.7375 22.8163C32.919 22.9603 33.1474 23.0327 33.3789 23.0196C33.6105 23.0065 33.8292 22.9089 33.9932 22.7453C34.1572 22.5817 34.2551 22.3636 34.2682 22.1326C34.2814 21.9016 34.2088 21.6739 34.0644 21.4928L26.5855 14.0351C26.5017 13.9349 26.3978 13.8531 26.2806 13.7951C26.1633 13.7371 26.0352 13.7041 25.9045 13.6982C25.7738 13.6923 25.6432 13.7137 25.5212 13.7609C25.3992 13.8081 25.2884 13.8802 25.1958 13.9725C25.1033 14.0648 25.0311 14.1753 24.9837 14.297C24.9364 14.4187 24.915 14.5489 24.9209 14.6793C24.9268 14.8097 24.9599 14.9375 25.018 15.0544C25.0762 15.1714 25.1581 15.275 25.2586 15.3586L25.3405 15.4402L20.6965 20.0723L20.6147 19.9907C20.4341 19.8405 20.2038 19.7631 19.9689 19.7736C19.734 19.7842 19.5115 19.8821 19.3453 20.0479C19.179 20.2138 19.0809 20.4356 19.0703 20.6699C19.0597 20.9042 19.1373 21.134 19.2879 21.3142L26.7646 28.7917C26.9461 28.9358 27.1744 29.0082 27.406 28.9951C27.6376 28.982 27.8562 28.8843 28.0202 28.7207C28.1843 28.5571 28.2822 28.339 28.2953 28.108C28.3084 27.877 28.2359 27.6493 28.0914 27.4683L22.4833 21.8744L28.0118 27.3888L28.7349 26.6654C28.6734 26.7521 28.6379 26.8544 28.6325 26.9605C28.6271 27.0666 28.6521 27.172 28.7045 27.2645C28.7568 27.357 28.8345 27.4327 28.9284 27.4828C29.0223 27.533 29.1285 27.5555 29.2347 27.5477C29.4057 27.5292 29.5745 27.4945 29.7389 27.444C29.646 27.9932 29.8849 28.6263 30.723 29.4623C31.7346 30.4466 32.9392 31.2118 34.2612 31.7099C34.1753 31.826 34.1352 31.9695 34.1487 32.1132C34.1621 32.2568 34.2282 32.3904 34.3342 32.4886C34.7035 32.8569 35.347 32.8591 36.0126 32.5614C40.3071 37.992 47.6799 46.1202 48.3787 46.8173C48.8755 47.3035 49.5448 47.5745 50.2409 47.5711C50.9369 47.5677 51.6035 47.2903 52.0956 46.7992C52.5876 46.3081 52.8654 45.643 52.8683 44.9487C52.8713 44.2544 52.5993 43.587 52.1115 43.0917L52.1203 43.0586Z" fill="white"/>
<path d="M36.605 46.021H35.0238C34.9868 45.5899 34.7891 45.1884 34.4698 44.8956C34.1504 44.6028 33.7327 44.4401 33.299 44.4395H20.3646C19.9308 44.4401 19.5131 44.6028 19.1938 44.8956C18.8744 45.1884 18.6767 45.5899 18.6397 46.021H17.0585C16.377 46.0407 15.73 46.3247 15.255 46.8125C14.7799 47.3003 14.5142 47.9536 14.5142 48.6337C14.5142 49.3138 14.7799 49.9671 15.255 50.4549C15.73 50.9428 16.377 51.2267 17.0585 51.2465H36.605C37.2865 51.2267 37.9335 50.9428 38.4085 50.4549C38.8836 49.9671 39.1494 49.3138 39.1494 48.6337C39.1494 47.9536 38.8836 47.3003 38.4085 46.8125C37.9335 46.3247 37.2865 46.0407 36.605 46.021V46.021Z" fill="white"/>
<path d="M35.0017 19.2523L23.8342 30.0606L18.2505 24.105L29.805 13.0762L35.0017 19.2523Z" fill="white"/>
<defs>
<linearGradient id="paint0_linear" x1="15.1437" y1="40.2419" x2="64.9839" y2="40.2419" gradientUnits="userSpaceOnUse">
<stop offset="0.15" stop-color="#B27216"/>
<stop offset="0.23" stop-color="#B27216" stop-opacity="0.96"/>
<stop offset="0.35" stop-color="#B27216" stop-opacity="0.84"/>
<stop offset="0.5" stop-color="#B27216" stop-opacity="0.65"/>
<stop offset="0.67" stop-color="#B27216" stop-opacity="0.39"/>
<stop offset="0.85" stop-color="#B27216" stop-opacity="0.06"/>
<stop offset="0.88" stop-color="#B27216" stop-opacity="0"/>
</linearGradient>
</defs>
</svg>
