<svg width="57" height="57" viewBox="0 0 57 57" fill="none" xmlns="http://www.w3.org/2000/svg">
<path d="M56.5668 23.4496C59.2848 38.9717 48.9307 53.8471 33.3994 56.5634C31.3286 56.9515 29.1284 57.0808 27.0575 56.9515C24.469 56.8221 21.8804 56.3047 19.5508 55.5286C17.3505 54.8819 15.4091 53.8471 13.4677 52.6829C12.8206 52.2949 12.3029 51.9068 11.7852 51.5188C9.32604 49.7079 7.12578 47.6382 5.31381 45.1806C5.05495 44.7925 4.66667 44.2751 4.40782 43.8871C2.46642 40.7826 1.04272 37.2902 0.395587 33.539C0.395587 33.151 0.26616 32.8923 0.26616 32.5042C-1.80467 17.3702 8.42005 3.14157 23.563 0.425209C27.3164 -0.221545 30.9403 -0.0921943 34.4349 0.55456C35.082 0.68391 35.7291 0.813261 36.3763 1.07196C39.2236 1.84807 41.9416 3.14158 44.4007 4.82313C44.9184 5.21119 45.4361 5.59924 45.9538 5.98729C47.7658 7.41015 49.4484 9.09171 50.8721 10.9026C52.4252 12.8429 53.59 14.9125 54.6254 17.2408C55.402 18.9224 55.9197 20.6039 56.308 22.5442C56.4374 22.8029 56.5668 23.0616 56.5668 23.4496Z" fill="url(#paint0_linear)"/>
<g opacity="0.3">
<path opacity="0.3" d="M54.6259 17.1131L27.1874 56.9532C24.5989 56.8238 22.0103 56.3064 19.6807 55.5303L51.002 10.9043C52.4257 12.8446 53.7199 14.9142 54.6259 17.1131Z" fill="#F2F0F3"/>
</g>
<g opacity="0.3">
<path opacity="0.3" d="M36.3757 1.07014L5.31321 45.3081C5.05436 44.7907 4.66608 44.2733 4.40723 43.8852L34.3048 0.552734C35.0814 0.682085 35.7285 0.811436 36.3757 1.07014Z" fill="#F2F0F3"/>
</g>
<g opacity="0.3">
<path opacity="0.3" d="M45.9548 5.99033L13.4687 52.8153C12.8215 52.4273 12.3038 52.0392 11.7861 51.6511L44.4017 4.82617C44.9194 5.21422 45.4371 5.60228 45.9548 5.99033Z" fill="#F2F0F3"/>
</g>
<path d="M50.8716 24.4838C50.8716 24.8719 51.001 25.1306 51.001 25.5186C52.5541 37.5482 44.4003 48.8018 32.3636 51.0007C20.4563 53.0703 8.80787 45.3093 6.21934 33.5384C6.08991 33.1503 6.08991 32.8916 5.96048 32.5036C3.76023 20.0859 12.0435 8.18561 24.4685 5.98664C36.8935 3.78768 48.6713 12.0661 50.8716 24.4838Z" fill="url(#paint1_linear)"/>
<path d="M51.132 25.5164C52.6851 37.546 44.5312 48.7996 32.4945 50.9985C32.2356 50.9985 31.9768 51.1279 31.7179 51.1279C29 51.5159 26.282 51.3866 23.8229 50.8692C21.2344 50.3518 18.9047 49.317 16.7044 48.0235C16.1867 47.6354 15.669 47.3767 15.0219 46.9886C12.6922 45.1777 10.6214 42.9788 9.06824 40.3918C8.67995 39.745 8.29167 39.0982 8.03282 38.4515C7.25626 36.8993 6.73855 35.2177 6.35027 33.5362C4.5383 21.5065 12.8216 10.253 24.8583 8.05407C26.282 7.79537 27.8351 7.66602 29.3882 7.66602C30.1648 7.66602 30.9414 7.79537 31.7179 7.79537C34.8242 8.18342 37.6716 9.21822 40.2601 10.6411C40.7778 11.0291 41.4249 11.2878 41.9426 11.6759C44.0135 13.0987 45.8255 14.9097 47.3786 16.9793C48.8023 19.0489 49.9671 21.2478 50.7437 23.7055C50.8731 24.3523 51.0025 24.8697 51.132 25.5164Z" fill="url(#paint2_linear)"/>
<path d="M20.5869 20.6028C22.6577 19.568 24.3403 18.9213 27.0583 15.6875H33.659V36.7717H37.1535V41.687H22.2695V36.7717H26.0228V23.0605L22.2695 24.8714L20.5869 20.6028Z" fill="url(#paint3_linear)"/>
<path d="M20.5869 19.181C22.6577 18.1461 24.3403 17.4994 27.0583 14.2656H33.659V35.3498H37.1535V40.2651H22.2695V35.3498H26.0228V21.6386L22.2695 23.4495L20.5869 19.181Z" fill="url(#paint4_linear)"/>
<g opacity="0.2">
<path opacity="0.2" d="M50.6132 23.838L31.5874 51.0017C28.8695 51.3897 26.1515 51.2604 23.6924 50.743L47.2481 16.9824C48.6718 19.052 49.8366 21.3803 50.6132 23.838Z" fill="url(#paint5_linear)"/>
</g>
<g opacity="0.2">
<path opacity="0.2" d="M31.5865 7.92472L8.93678 40.3918C8.5485 39.745 8.16022 39.0983 7.90137 38.4515L29.3862 7.66602C30.1628 7.66602 30.8099 7.79537 31.5865 7.92472Z" fill="url(#paint6_linear)"/>
</g>
<g opacity="0.2">
<path opacity="0.2" d="M41.8124 11.8102L16.5741 48.0284C16.0564 47.6404 15.5387 47.3817 14.8916 46.9936L40.1298 10.7754C40.777 11.0341 41.2947 11.4221 41.8124 11.8102Z" fill="url(#paint7_linear)"/>
</g>
<defs>
<linearGradient id="paint0_linear" x1="28.4456" y1="30.5365" x2="28.4456" y2="106.775" gradientUnits="userSpaceOnUse">
<stop stop-color="#FFD540"/>
<stop offset="1" stop-color="#FC9E00"/>
</linearGradient>
<linearGradient id="paint1_linear" x1="5.61168" y1="28.4602" x2="51.2781" y2="28.4602" gradientUnits="userSpaceOnUse">
<stop stop-color="#FC9E00"/>
<stop offset="1" stop-color="#DC7000"/>
</linearGradient>
<linearGradient id="paint2_linear" x1="30.6121" y1="5.49163" x2="27.7902" y2="39.6895" gradientUnits="userSpaceOnUse">
<stop stop-color="#FFD540"/>
<stop offset="1" stop-color="#FC9E00"/>
</linearGradient>
<linearGradient id="paint3_linear" x1="28.8445" y1="18.8103" x2="28.8445" y2="40.4531" gradientUnits="userSpaceOnUse">
<stop stop-color="#FC9E00"/>
<stop offset="1" stop-color="#DC7000"/>
</linearGradient>
<linearGradient id="paint4_linear" x1="28.8445" y1="36.4353" x2="28.8445" y2="78.906" gradientUnits="userSpaceOnUse">
<stop stop-color="#FFD540"/>
<stop offset="1" stop-color="#FC9E00"/>
</linearGradient>
<linearGradient id="paint5_linear" x1="37.1831" y1="30.5368" x2="37.1831" y2="106.776" gradientUnits="userSpaceOnUse">
<stop stop-color="#FFD540"/>
<stop offset="1" stop-color="#FC9E00"/>
</linearGradient>
<linearGradient id="paint6_linear" x1="19.7565" y1="30.5337" x2="19.7565" y2="106.773" gradientUnits="userSpaceOnUse">
<stop stop-color="#FFD540"/>
<stop offset="1" stop-color="#FC9E00"/>
</linearGradient>
<linearGradient id="paint7_linear" x1="28.3955" y1="30.5386" x2="28.3955" y2="106.778" gradientUnits="userSpaceOnUse">
<stop stop-color="#FFD540"/>
<stop offset="1" stop-color="#FC9E00"/>
</linearGradient>
</defs>
</svg>
